<?xml version="1.0" encoding="utf-8"?>
<!-- Generator: Adobe Illustrator 18.0.0, SVG Export Plug-In . SVG Version: 6.00 Build 0)  -->
<!DOCTYPE svg PUBLIC "-//W3C//DTD SVG 1.1//EN" "http://www.w3.org/Graphics/SVG/1.1/DTD/svg11.dtd">
<svg version="1.1" id="Layer_1" xmlns="http://www.w3.org/2000/svg" xmlns:xlink="http://www.w3.org/1999/xlink" x="0px" y="0px"
	 viewBox="0 0 300 100" enable-background="new 0 0 300 100" xml:space="preserve">
<g>
	<g>
		<g>
			<path fill="#FFFFFF" d="M47.2,37.5c8.9,0,13.1,5.3,13.1,12.5s-4.2,12.5-13.1,12.5h-9.4V37.5H47.2z M47.2,42.2h-4v15.6h4
				c5,0,7.7-2.7,7.7-7.8C54.9,44.8,52.2,42.2,47.2,42.2z"/>
			<path fill="#FFFFFF" d="M79.3,37c8.9,0,13.3,6.2,13.3,13s-4.4,13-13.3,13C70.4,63,66,56.8,66,50S70.4,37,79.3,37z M79.3,41.9
				c-5.2,0-7.8,3.7-7.8,8.1s2.6,8.1,7.8,8.1c5.2,0,7.8-3.7,7.8-8.1S84.5,41.9,79.3,41.9z"/>
			<path fill="#FFFFFF" d="M120.4,37.5v15.6c0,7.4-5.4,9.9-11,9.9c-5.6,0-11-2.5-11-9.9V37.5h5.4v15.4c0,4,2.3,5.4,5.6,5.4
				c3.4,0,5.7-1.4,5.7-5.4V37.5H120.4z"/>
			<path fill="#FFFFFF" d="M139.9,37.5c5.3,0,8.7,2,8.7,6.3c0,2.9-1.6,4.7-3.8,5.5c2.5,0.7,4.8,2.5,4.8,6.2c0,5.7-5.5,7-9.8,7h-10.8
				V37.5H139.9z M139.9,51.7h-5.7v6.4h5.4c2.4,0,4.5-0.5,4.5-3.2C144.2,52.3,142.1,51.7,139.9,51.7z M139.4,41.9h-5.1v5.7h5.4
				c2,0,3.5-0.9,3.5-2.9C143.2,42.8,141.8,41.9,139.4,41.9z"/>
			<path fill="#FFFFFF" d="M162.4,37.5v20.2h12.3v4.8H157V37.5H162.4z"/>
			<path fill="#FFFFFF" d="M198.5,37.5v4.7h-12.3v5.3h11.2v4.7h-11.2v5.6h12.5v4.7h-17.9V37.5H198.5z"/>
			<path fill="#FFFFFF" d="M233.3,37.5v15.6c0,7.4-5.4,9.9-11,9.9c-5.6,0-11-2.5-11-9.9V37.5h5.4v15.4c0,4,2.3,5.4,5.6,5.4
				c3.4,0,5.7-1.4,5.7-5.4V37.5H233.3z"/>
			<path fill="#FFFFFF" d="M251.3,37.5c6.1,0,10.8,1.9,10.8,8.4s-4.8,8.4-10.8,8.4h-4.1v8.2h-5.4V37.5H251.3z M251.6,42.2h-4.3v7.4
				h4.3c2.8,0,5.1-0.8,5.1-3.7C256.7,42.9,254.3,42.2,251.6,42.2z"/>
		</g>
		<path fill="#FFFFFF" d="M25,0L0,25v75h275l25-25V0H25z M294.7,72.8l-21.9,21.9H5.3V27.2L27.2,5.3h267.5V72.8z"/>
	</g>
</g>
</svg>
